<?xml version="1.0" encoding="UTF-8" standalone="no"?>
<svg
   xmlns:dc="http://purl.org/dc/elements/1.1/"
   xmlns:cc="http://creativecommons.org/ns#"
   xmlns:rdf="http://www.w3.org/1999/02/22-rdf-syntax-ns#"
   xmlns:svg="http://www.w3.org/2000/svg"
   xmlns="http://www.w3.org/2000/svg"
   xmlns:sodipodi="http://sodipodi.sourceforge.net/DTD/sodipodi-0.dtd"
   xmlns:inkscape="http://www.inkscape.org/namespaces/inkscape"
   viewBox="0 0 550 599.99997"
   height="600"
   width="550"
   xml:space="preserve"
   version="1.1"
   id="svg2"
   inkscape:version="0.91 r13725"
   sodipodi:docname="Logo ENSG 2012..svg"><sodipodi:namedview
     pagecolor="#ffffff"
     bordercolor="#666666"
     borderopacity="1"
     objecttolerance="10"
     gridtolerance="10"
     guidetolerance="10"
     inkscape:pageopacity="0"
     inkscape:pageshadow="2"
     inkscape:window-width="1440"
     inkscape:window-height="788"
     id="namedview129"
     showgrid="false"
     inkscape:zoom="0.84784564"
     inkscape:cx="300"
     inkscape:cy="330"
     inkscape:window-x="0"
     inkscape:window-y="1"
     inkscape:window-maximized="1"
     inkscape:current-layer="svg2" /><metadata
     id="metadata8"><rdf:RDF><cc:Work
         rdf:about=""><dc:format>image/svg+xml</dc:format><dc:type
           rdf:resource="http://purl.org/dc/dcmitype/StillImage" /><dc:title></dc:title></cc:Work></rdf:RDF></metadata><defs
     id="defs6" /><g
     id="g16516"
     transform="matrix(1.2448778,0,0,-1.25,-69.086607,1476.4332)"><g
       transform="matrix(0.99995902,0,0,1,0.00227414,0)"
       id="g16320"><path
         inkscape:connector-curvature="0"
         id="path11694"
         style="fill:#67727c;fill-opacity:1;fill-rule:nonzero;stroke:none"
         d="M 108.78666,987.26134 C 102.75392,976.87227 92.243037,973.067 84.528093,973.067 c -4.112703,0 -7.929569,0.88751 -11.444799,2.66253 -3.51523,1.76922 -6.525798,4.1127 -9.043306,7.03046 -2.511707,2.91196 -4.483949,6.22416 -5.910923,9.94242 -1.426975,3.71245 -2.140462,7.48289 -2.140462,11.31139 0,4.0025 0.696085,7.8599 2.099857,11.5724 1.397971,3.7183 3.341208,7.0015 5.823912,9.8554 2.488504,2.8656 5.429464,5.1336 8.82868,6.8216 3.399215,1.6822 7.129072,2.5292 11.189568,2.5292 3.085978,0 5.841315,-0.3307 8.271812,-0.9862 2.424696,-0.6554 4.58256,-1.572 6.467791,-2.7437 1.885227,-1.1717 3.526827,-2.5755 4.930607,-4.1997 1.39797,-1.63 2.58131,-3.4166 3.55583,-5.3599 l -3.51523,-2.1404 c -2.11726,3.9967 -4.866794,6.897 -8.271811,8.701 -3.399216,1.7982 -7.239285,2.6974 -11.526009,2.6974 -3.602241,0 -6.844838,-0.7715 -9.72779,-2.3145 -2.888753,-1.543 -5.359856,-3.5733 -7.419107,-6.085 -2.053452,-2.5175 -3.625444,-5.3714 -4.710176,-8.5734 -1.084733,-3.202 -1.63,-6.4852 -1.63,-9.8612 0,-3.5965 0.626477,-7.01308 1.885231,-10.23827 1.258754,-3.231 2.987365,-6.07335 5.185834,-8.53285 2.198469,-2.4595 4.785585,-4.41434 7.755548,-5.87032 2.969964,-1.46177 6.171955,-2.18686 9.600175,-2.18686 3.718254,0 7.216082,0.8585 10.505084,2.57551 3.283202,1.71121 6.496791,4.39694 9.640781,8.05719 l 0,11.82764 -13.799889,0 0,3.51526 17.657359,0" /><path
         inkscape:connector-curvature="0"
         id="path11698"
         style="fill:#67727c;fill-opacity:1;fill-rule:nonzero;stroke:none"
         d="m 135.0134,1027.4191 -3.00477,1.3748 5.23224,7.2857 4.97121,0 -7.19868,-8.6605 z m 17.82558,-29.92006 c -0.17402,2.62776 -0.75989,5.02926 -1.75761,7.20446 -0.99773,2.1695 -2.28548,4.0431 -3.85748,5.6151 -1.57199,1.572 -3.38181,2.796 -5.44106,3.6835 -2.05345,0.8875 -4.25772,1.3283 -6.59541,1.3283 -2.34929,0 -4.54775,-0.4408 -6.60121,-1.3283 -2.05925,-0.8875 -3.87487,-2.1115 -5.44686,-3.6835 -1.57199,-1.572 -2.82495,-3.463 -3.77046,-5.6615 -0.93972,-2.1985 -1.50239,-4.5825 -1.67061,-7.15806 l 35.1407,0 z M 135.35564,972.643 c -3.14398,0 -6.05594,0.61488 -8.74167,1.83883 -2.69153,1.22975 -5.01761,2.91775 -6.98985,5.06402 -1.97224,2.14046 -3.50943,4.61156 -4.62897,7.4133 -1.11373,2.79594 -1.6706,5.80071 -1.6706,8.9969 0,3.14399 0.55687,6.10235 1.6706,8.87505 1.11954,2.767 2.64513,5.1975 4.58836,7.2857 1.94324,2.0825 4.25772,3.7299 6.94345,4.9306 2.68573,1.2008 5.56868,1.7983 8.66046,1.7983 3.13819,0 6.03854,-0.6149 8.69526,-1.8447 2.65673,-1.2297 4.95961,-2.8829 6.90285,-4.9712 1.93744,-2.0882 3.46882,-4.5129 4.58256,-7.2857 1.11374,-2.7727 1.6706,-5.70207 1.6706,-8.78805 0,-0.28423 -0.0116,-0.63808 -0.0406,-1.06733 -0.029,-0.42925 -0.0464,-0.70188 -0.0464,-0.8179 l -39.16639,0 c 0.16822,-2.57551 0.7715,-4.9538 1.79822,-7.15807 1.03253,-2.19847 2.32609,-4.10111 3.90388,-5.6963 1.56619,-1.6068 3.38181,-2.85975 5.44107,-3.77046 2.05345,-0.92231 4.25192,-1.37477 6.5954,-1.37477 1.54299,0 3.07438,0.20883 4.58836,0.64388 1.51399,0.42345 2.91776,1.01512 4.19972,1.75761 1.28775,0.73669 2.43049,1.6416 3.42822,2.70313 0.99772,1.05573 1.78661,2.21007 2.35508,3.46883 l 3.77627,-1.03253 c -0.69029,-1.60099 -1.64741,-3.07437 -2.87135,-4.41434 -1.22976,-1.33996 -2.66253,-2.5001 -4.28673,-3.46882 -1.63,-0.97452 -3.41662,-1.72861 -5.35985,-2.27388 -1.94324,-0.53947 -3.93869,-0.8121 -5.99794,-0.8121" /><path
         inkscape:connector-curvature="0"
         id="path11702"
         style="fill:#67727c;fill-opacity:1;fill-rule:nonzero;stroke:none"
         d="m 163.46762,995.53026 c 0,-2.62772 0.45826,-5.09882 1.37477,-7.41331 0.91071,-2.31448 2.15206,-4.33313 3.72405,-6.04434 1.572,-1.71701 3.41662,-3.07437 5.53388,-4.07209 2.11146,-0.99773 4.36793,-1.50239 6.76943,-1.50239 2.39569,0 4.65797,0.50466 6.76943,1.50239 2.11145,0.99772 3.95608,2.38409 5.52807,4.1533 1.57199,1.77502 2.83075,3.81687 3.77046,6.13135 0.94552,2.31449 1.41538,4.81459 1.41538,7.50032 0,2.62772 -0.46986,5.10461 -1.41538,7.41911 -0.93971,2.3145 -2.19847,4.3389 -3.77046,6.0849 -1.57199,1.7403 -3.41662,3.1266 -5.52807,4.1534 -2.11146,1.0325 -4.37374,1.5487 -6.76943,1.5487 -2.34349,0 -4.57096,-0.5162 -6.68822,-1.5487 -2.11146,-1.0268 -3.97349,-2.4305 -5.56868,-4.194 -1.601,-1.775 -2.85975,-3.8516 -3.77046,-6.2183 -0.91651,-2.3725 -1.37477,-4.87262 -1.37477,-7.50034 m 17.40213,-22.8896 c -3.14399,0 -6.04434,0.62068 -8.70107,1.84463 -2.65672,1.22975 -4.9596,2.90035 -6.89704,5.01761 -1.94324,2.11146 -3.46302,4.56516 -4.54776,7.3727 -1.08473,2.79594 -1.62419,5.7369 -1.62419,8.82868 0,3.13819 0.55686,6.10812 1.6706,8.90992 1.11374,2.8017 2.65673,5.2612 4.62897,7.3727 1.96644,2.1172 4.26932,3.7878 6.89704,5.0176 2.62772,1.2239 5.48747,1.8388 8.57345,1.8388 3.08598,0 5.95733,-0.6149 8.61405,-1.8388 2.65673,-1.2298 4.97121,-2.9004 6.94345,-5.0176 1.97224,-2.1115 3.51523,-4.571 4.62317,-7.3727 1.11953,-2.8018 1.6764,-5.77173 1.6764,-8.90992 0,-3.09178 -0.55687,-6.03274 -1.6764,-8.82868 -1.10794,-2.80754 -2.63933,-5.26124 -4.58256,-7.3727 -1.94324,-2.11726 -4.25772,-3.78786 -6.94345,-5.01761 -2.68573,-1.22395 -5.56868,-1.84463 -8.65466,-1.84463" /><path
         inkscape:connector-curvature="0"
         id="path11706"
         style="fill:#67727c;fill-opacity:1;fill-rule:nonzero;stroke:none"
         d="m 274.03843,973.49858 -4.28672,0 0,24.86184 c 0,5.65568 -0.87011,9.82638 -2.61612,12.51218 -1.74022,2.6857 -4.41434,4.0314 -8.01078,4.0314 -1.88523,0 -3.65445,-0.348 -5.31345,-1.0325 -1.65901,-0.6845 -3.16139,-1.6416 -4.50135,-2.8713 -1.33997,-1.224 -2.51751,-2.6858 -3.51523,-4.3738 -1.00353,-1.6822 -1.78662,-3.5558 -2.35509,-5.6093 l 0,-27.51852 -4.28673,0 0,24.86184 c 0,5.71368 -0.8585,9.89598 -2.57551,12.55858 -1.71121,2.6567 -4.36794,3.985 -7.97018,3.985 -1.82722,0 -3.56743,-0.3306 -5.22063,-0.9861 -1.65901,-0.6555 -3.17299,-1.601 -4.54776,-2.8307 -1.36897,-1.2298 -2.57552,-2.6858 -3.60224,-4.3738 -1.02673,-1.6822 -1.82722,-3.5558 -2.39569,-5.6092 l 0,-27.60562 -4.28673,0 0,44.57842 3.94448,0 0,-10.6327 c 1.87943,3.6023 4.30993,6.3982 7.28569,8.3995 2.96417,2.0012 6.25317,3.0047 9.85541,3.0047 3.77046,0 6.81583,-1.1137 9.12452,-3.347 2.31448,-2.2275 3.70085,-5.1452 4.1591,-8.7417 4.34474,8.0572 10.16865,12.0887 17.48334,12.0887 4.919,0 8.41683,-1.7344 10.50509,-5.1858 2.08245,-3.4572 3.12658,-8.3066 3.12658,-14.53079 l 0,-25.63333 z" /><path
         inkscape:connector-curvature="0"
         id="path11710"
         style="fill:#67727c;fill-opacity:1;fill-rule:nonzero;stroke:none"
         d="m 294.34903,976.0712 c 3.31801,0 6.37498,0.61488 9.17092,1.83882 2.80174,1.23556 4.89,2.90036 6.25897,5.01762 0.97452,1.14274 1.45598,2.28548 1.45598,3.42822 l 0,7.88896 c -4.33894,1.601 -8.79968,2.4015 -13.37064,2.4015 -4.45494,0 -8.05719,-0.91652 -10.80092,-2.74374 -2.73794,-1.83302 -4.1127,-4.22872 -4.1127,-7.19868 0,-1.49078 0.28423,-2.88875 0.8585,-4.20551 0.56847,-1.31677 1.37477,-2.4421 2.40149,-3.38182 1.02673,-0.94551 2.23908,-1.688 3.63705,-2.23327 1.40377,-0.53947 2.90615,-0.8121 4.50135,-0.8121 m 17.31512,-2.57551 0,7.45971 c -2.05925,-2.68573 -4.66957,-4.74498 -7.84256,-6.17196 -3.16719,-1.42697 -6.61281,-2.14046 -10.32526,-2.14046 -2.05926,0 -3.99089,0.35964 -5.78911,1.07313 -1.79822,0.70769 -3.37021,1.68221 -4.71018,2.91196 -1.34576,1.22975 -2.38989,2.68573 -3.13238,4.37373 -0.74249,1.68221 -1.11374,3.49783 -1.11374,5.44107 0,1.94324 0.45246,3.71245 1.37477,5.31345 0.91071,1.60099 2.19847,2.98736 3.85167,4.15911 1.6532,1.17174 3.61384,2.08825 5.87032,2.74373 2.26228,0.65548 4.76238,0.98612 7.50612,0.98612 2.40149,0 4.82619,-0.21462 7.27989,-0.64388 2.4653,-0.42925 4.66377,-1.01512 6.60121,-1.75761 l 0,4.37371 c 0,4.2287 -1.20075,7.5816 -3.59644,10.0701 -2.4073,2.4885 -5.6615,3.7298 -9.7742,3.7298 -2.22747,0 -4.55356,-0.4582 -6.98405,-1.3748 -2.4305,-0.9107 -4.8726,-2.2274 -7.3321,-3.9386 l -1.71121,2.9119 c 5.77171,3.8865 11.19537,5.8297 16.28839,5.8297 5.36566,0 9.61178,-1.5604 12.72676,-4.6695 3.10918,-3.115 4.67537,-7.4191 4.67537,-12.9008 l 0,-27.77961 -3.86327,0" /><path
         inkscape:connector-curvature="0"
         id="path11714"
         style="fill:#67727c;fill-opacity:1;fill-rule:nonzero;stroke:none"
         d="m 344.40509,975.64136 c -0.22623,-0.11601 -0.60907,-0.33064 -1.15434,-0.64388 -0.54527,-0.31324 -1.22975,-0.61487 -2.06505,-0.89911 -0.8237,-0.28423 -1.75182,-0.53946 -2.77854,-0.77149 -1.02673,-0.23203 -2.14627,-0.34224 -3.34701,-0.34224 -1.19495,0 -2.32609,0.16822 -3.38182,0.51626 -1.05573,0.34224 -1.98964,0.8527 -2.78434,1.54299 -0.80049,0.68448 -1.44437,1.51398 -1.93163,2.4827 -0.48146,0.97452 -0.72509,2.11146 -0.72509,3.42822 l 0,33.60349 -6.25317,0 0,3.521 6.25317,0 0,15.2559 4.28092,0 0,-15.2559 10.45868,0 0,-3.521 -10.45868,0 0,-32.57096 c 0,-1.65901 0.56847,-2.90616 1.72281,-3.72986 1.13694,-0.8295 2.4537,-1.24135 3.93868,-1.24135 1.76922,0 3.30061,0.29583 4.58837,0.89331 1.28775,0.60327 2.06505,0.99192 2.35508,1.16014 l 1.28196,-3.42822 z" /><path
         inkscape:connector-curvature="0"
         d="m 347.32053,1018.0765 4.29252,0 0,-44.5785 -4.29252,0 0,44.5785 z m 0,17.9996 4.29252,0 0,-7.889 -4.29252,0 0,7.889 z"
         style="fill:#67727c;fill-opacity:1;fill-rule:nonzero;stroke:none"
         id="path11716" /><path
         inkscape:connector-curvature="0"
         id="path11720"
         style="fill:#67727c;fill-opacity:1;fill-rule:nonzero;stroke:none"
         d="m 379.03301,976.50045 c 1.88523,0 3.63704,0.31324 5.26704,0.94552 1.63,0.62067 3.13239,1.45597 4.50716,2.4827 1.36896,1.02672 2.61031,2.23907 3.72985,3.64284 1.10214,1.39798 2.06505,2.87136 2.86555,4.41434 l 0,14.57135 c -0.22623,1.659 -0.8585,3.231 -1.88523,4.716 -1.02672,1.485 -2.30288,2.796 -3.81687,3.9445 -1.50818,1.1427 -3.14978,2.0534 -4.9248,2.7437 -1.77501,0.6845 -3.52103,1.0268 -5.23224,1.0268 -2.56971,0 -4.9422,-0.5569 -7.11167,-1.6706 -2.17526,-1.1138 -4.04309,-2.5698 -5.60928,-4.3738 -1.572,-1.7982 -2.78434,-3.8691 -3.64865,-6.2125 -0.8527,-2.3435 -1.28196,-4.71602 -1.28196,-7.11751 0,-2.56972 0.42926,-5.00021 1.28196,-7.28569 0.86431,-2.28548 2.04185,-4.31573 3.56164,-6.08495 1.51398,-1.77501 3.3122,-3.17299 5.39466,-4.19971 2.08245,-1.02673 4.38533,-1.54299 6.90284,-1.54299 m 16.41601,-21.43942 -0.0464,28.04063 c -2.28548,-3.42822 -4.9132,-6.03274 -7.88896,-7.80196 -2.96997,-1.76921 -6.16616,-2.66252 -9.60018,-2.66252 -3.08017,0 -5.86451,0.64388 -8.35302,1.93163 -2.4885,1.28776 -4.63477,2.99897 -6.42718,5.14523 -1.80403,2.14627 -3.18459,4.59997 -4.15331,7.3727 -0.98032,2.77274 -1.45598,5.64409 -1.45598,8.61406 0,3.08598 0.55107,6.0269 1.6706,8.8287 1.10794,2.8017 2.62192,5.2554 4.54196,7.3727 1.91423,2.1114 4.16491,3.7994 6.76943,5.0582 2.59871,1.2588 5.38306,1.8852 8.35302,1.8852 3.49203,0 6.74622,-0.9281 9.77419,-2.7843 3.02797,-1.8562 5.40046,-4.1881 7.11167,-6.9841 l 0,8.9969 3.93869,0 0,-63.01307 -4.23452,0 z" /><path
         inkscape:connector-curvature="0"
         id="path11724"
         style="fill:#67727c;fill-opacity:1;fill-rule:nonzero;stroke:none"
         d="m 441.42892,973.51134 0,10.53409 c -1.99544,-3.60224 -4.68117,-6.40398 -8.06299,-8.40523 -3.35861,-1.99544 -7.01885,-2.99897 -10.95754,-2.99897 -9.54796,0 -14.31615,6.57221 -14.31615,19.71661 l 0,25.72036 4.28093,0 0,-25.12288 c 0,-10.96914 3.73565,-16.45661 11.23017,-16.45661 1.88523,0 3.72986,0.33064 5.52808,0.98612 1.79822,0.65548 3.46882,1.57199 5.01181,2.74373 1.54299,1.17174 2.90035,2.58712 4.0663,4.24612 1.17754,1.6532 2.11145,3.48043 2.79594,5.48167 l 0,28.12185 4.28092,0 0,-44.56686 -3.85747,0 z" /><path
         inkscape:connector-curvature="0"
         id="path11728"
         style="fill:#67727c;fill-opacity:1;fill-rule:nonzero;stroke:none"
         d="m 491.14738,997.50192 c -0.17402,2.62768 -0.75989,5.02918 -1.76342,7.19868 -0.99772,2.1695 -2.27967,4.0431 -3.85747,5.6151 -1.56619,1.572 -3.38761,2.7959 -5.44106,3.6892 -2.05345,0.8817 -4.25772,1.3284 -6.60121,1.3284 -2.34349,0 -4.54196,-0.4467 -6.59541,-1.3284 -2.05925,-0.8933 -3.87487,-2.1172 -5.44686,-3.6892 -1.56619,-1.572 -2.82495,-3.4572 -3.76466,-5.6557 -0.94552,-2.1985 -1.50239,-4.5884 -1.67641,-7.15808 l 35.1465,0 z m -17.48914,-24.86184 c -3.13818,0 -6.05594,0.62068 -8.74747,1.84463 -2.67993,1.22975 -5.00601,2.91195 -6.97825,5.05821 -1.97804,2.14627 -3.52103,4.61737 -4.62317,7.41331 -1.11953,2.80174 -1.6822,5.80071 -1.6822,9.0027 0,3.13819 0.56267,6.09657 1.6822,8.86927 1.10214,2.7728 2.63352,5.2033 4.57676,7.2915 1.94324,2.0825 4.26352,3.7241 6.94345,4.9248 2.68573,1.2008 5.57448,1.804 8.65466,1.804 3.14979,0 6.05014,-0.6148 8.69526,-1.8446 2.66253,-1.2355 4.96541,-2.8887 6.91445,-4.9712 1.93744,-2.0883 3.46302,-4.5188 4.58256,-7.2915 1.10793,-2.7669 1.6706,-5.69629 1.6706,-8.78227 0,-0.29003 -0.0232,-0.64388 -0.0464,-1.07313 -0.029,-0.42925 -0.0406,-0.69609 -0.0406,-0.8121 l -39.17799,0 c 0.17402,-2.57551 0.7773,-4.95961 1.80402,-7.15807 1.03253,-2.20427 2.33189,-4.10111 3.90388,-5.7021 1.57199,-1.601 3.38181,-2.85975 5.44107,-3.77046 2.05345,-0.91652 4.25192,-1.37477 6.5954,-1.37477 1.54299,0 3.07438,0.21463 4.59416,0.64388 1.50819,0.42925 2.90616,1.01512 4.19972,1.75761 1.27615,0.74249 2.43049,1.6474 3.42242,2.70313 1.00352,1.05573 1.78661,2.21007 2.35508,3.46883 l 3.77627,-1.02673 c -0.68449,-1.60099 -1.64161,-3.07437 -2.87136,-4.41434 -1.23555,-1.34576 -2.65672,-2.5001 -4.28672,-3.47462 -1.6358,-0.96872 -3.41662,-1.72861 -5.35405,-2.27388 -1.94904,-0.53947 -3.94449,-0.8121 -6.00374,-0.8121" /></g><g
       id="g16506"><path
         inkscape:connector-curvature="0"
         id="path11732"
         style="fill:#67727d;fill-opacity:1;fill-rule:nonzero;stroke:none"
         d="m 142.8489,1065.3853 0,-14.2175 -85.655566,0 0,126.177 84.054636,0 0,-14.2175 -68.062735,0 0,-40.8718 59.182215,0 0,-13.3301 -59.182215,0 0,-43.5401 69.663665,0 z" /><path
         inkscape:connector-curvature="0"
         id="path11736"
         style="fill:#67727d;fill-opacity:1;fill-rule:nonzero;stroke:none"
         d="m 169.14824,1147.492 0,-96.3266 -15.9919,0 0,126.1829 12.43622,0 78.19615,-98.2757 0,98.0958 15.9919,0 0,-126.003 -13.5035,0 -77.12887,96.3266 z" /><path
         inkscape:connector-curvature="0"
         id="path11740"
         style="fill:#67727d;fill-opacity:1;fill-rule:nonzero;stroke:none"
         d="m 352.01101,1150.8657 c -1.42691,1.659 -3.31788,3.26 -5.68447,4.7972 -2.37239,1.543 -5.0406,2.9351 -7.99884,4.1823 -2.96985,1.2413 -6.19491,2.2449 -9.68679,3.0164 -3.49189,0.7715 -7.13458,1.1543 -10.92809,1.1543 -9.8376,0 -17.03599,-1.8388 -21.58936,-5.5049 -4.56496,-3.6776 -6.84455,-8.7126 -6.84455,-15.1108 0,-3.434 0.64965,-6.2822 1.96056,-8.5271 1.29931,-2.2506 3.34107,-4.1765 6.1253,-5.7775 2.78422,-1.601 6.2471,-2.9931 10.38864,-4.1765 4.14733,-1.1833 9.07194,-2.4247 14.7506,-3.7298 6.52553,-1.4212 12.41881,-3.057 17.69143,-4.8842 5.26684,-1.8447 9.768,-4.1243 13.50351,-6.8449 3.7297,-2.7263 6.57193,-6.0443 8.53249,-9.954 1.94896,-3.9097 2.93504,-8.7068 2.93504,-14.3915 0,-6.0444 -1.1833,-11.2882 -3.56149,-15.7316 -2.3666,-4.4433 -5.59746,-8.1152 -9.68099,-11.0155 -4.09513,-2.9062 -8.92112,-5.0408 -14.48377,-6.3982 -5.57426,-1.3632 -11.61835,-2.0476 -18.12648,-2.0476 -9.71579,0 -18.92694,1.5139 -27.63345,4.5303 -8.7065,3.028 -16.61835,7.4365 -23.72973,13.243 l 7.64502,13.5041 c 1.89096,-2.0129 4.35616,-4.0257 7.37821,-6.0386 3.01624,-2.0186 6.45592,-3.8226 10.30164,-5.4178 3.85731,-1.601 7.99884,-2.9062 12.44201,-3.9155 4.44895,-1.0035 9.08933,-1.5082 13.95012,-1.5082 9.00234,0 15.99771,1.601 20.96871,4.7972 4.97681,3.202 7.46521,7.9992 7.46521,14.3974 0,3.55 -0.80047,6.5432 -2.40139,8.9737 -1.59514,2.4247 -3.93852,4.5303 -7.01858,6.3053 -3.08005,1.7808 -6.90255,3.347 -11.46173,4.7102 -4.56497,1.3632 -9.74479,2.7553 -15.55106,4.1765 -6.39793,1.5372 -12.02438,3.202 -16.87938,4.977 -4.86079,1.7808 -8.92112,3.9097 -12.17519,6.3982 -3.25986,2.4885 -5.71926,5.5107 -7.3724,9.0665 -1.66473,3.5559 -2.48839,7.8194 -2.48839,12.7964 0,6.0385 1.12528,11.3694 3.37587,15.9925 2.25058,4.6174 5.38864,8.5271 9.41996,11.7291 4.01973,3.1962 8.81672,5.5977 14.39097,7.1987 5.56845,1.6009 11.60675,2.3956 18.12648,2.3956 8.53249,0 16.22971,-1.2993 23.10327,-3.9096 6.86776,-2.6045 12.97566,-6.1024 18.30629,-10.4819 l -7.4652,-12.9762 z" /><g
         id="g16500"><path
           inkscape:connector-curvature="0"
           d="m 433.23251,1050.1091 c -9.14192,0 -17.9996,1.9084 -26.31782,5.6615 l -0.93391,0.4176 10.6907,11.8741 0.46986,-0.1624 c 5.18584,-1.804 10.6037,-2.7148 16.09117,-2.7148 23.98593,0 44.79888,17.8604 48.42432,41.5389 l 0.0464,0.3423 -31.37024,0 3.73566,12.5875 43.00646,0 c 0.23203,-2.1463 0.23203,-3.0454 0.23203,-5.093 l 0,-0.3771 c 0,-2.1056 -0.11022,-4.2751 -0.32484,-6.4446 -3.2774,-32.8552 -30.68576,-57.63 -63.7498,-57.63"
           style="fill:#67727d;fill-opacity:1;fill-rule:nonzero;stroke:none"
           id="path11752" /><path
           inkscape:connector-curvature="0"
           d="m 444.85336,1107.633 -40.87592,-45.3848 17.60443,58.4828 40.87012,45.3906 -17.59863,-58.4886 z"
           style="fill:#80cc2a;fill-opacity:1;fill-rule:evenodd;stroke:none"
           id="path11744" /><path
           inkscape:connector-curvature="0"
           d="m 396.91711,1061.3903 c -17.38982,11.9843 -27.77266,31.7183 -27.77266,52.7981 0,35.3263 28.74134,64.0746 64.07201,64.0746 7.86544,0 15.57426,-1.427 22.91766,-4.2403 l -10.17982,-12.518 c -4.15894,1.1138 -8.43969,1.6822 -12.73784,1.6822 -27.01859,0 -48.99658,-21.9846 -48.99658,-48.9985 0,-14.6468 6.47912,-28.4119 17.77264,-37.7627 l 0.37703,-0.319 -4.59978,-15.3023 -0.85266,0.5859 z"
           style="fill:#67727d;fill-opacity:1;fill-rule:nonzero;stroke:none"
           id="path11748" /><path
           inkscape:connector-curvature="0"
           d="m 474.42706,1175.6823 -6.00928,-10.4529 -1.14851,0.6613 -2.34338,11.8683 -4.54177,-7.9122 -1.47332,0.8469 6.00349,10.4529 1.17169,-0.6729 c 0.20301,-1.195 0.41184,-2.3261 0.62066,-3.3934 0.20301,-1.0732 0.42343,-2.1289 0.66125,-3.173 0.17981,-0.8759 0.35383,-1.7576 0.52784,-2.6335 0.17401,-0.8759 0.34802,-1.7635 0.51624,-2.6626 l 4.54757,7.918 1.46752,-0.8469 z"
           style="fill:#67727d;fill-opacity:1;fill-rule:nonzero;stroke:none"
           id="path11756" /></g></g><g
       transform="matrix(0.99995902,0,0,1,0.00227414,0)"
       id="g16332"><path
         inkscape:connector-curvature="0"
         id="path11760"
         style="fill:#67727d;fill-opacity:1;fill-rule:nonzero;stroke:none"
         d="m 67.906157,867.12169 -2.900355,0.88751 2.297081,4.43174 4.234518,0 -3.631244,-5.31925 z m 8.544445,-27.60558 0,-3.99088 -19.629601,0 0,28.6149 19.269957,0 0,-3.99089 -14.751204,0 0,-8.1384 12.773162,0 0,-3.75306 -12.773162,0 0,-8.74167 15.110848,0 z" /><path
         inkscape:connector-curvature="0"
         id="path11764"
         style="fill:#67727d;fill-opacity:1;fill-rule:nonzero;stroke:none"
         d="m 84.955602,850.03338 c 0,1.72281 0.307438,3.43402 0.928114,5.13943 0.614875,1.70541 1.508184,3.23679 2.679927,4.59416 1.165943,1.35737 2.598718,2.4479 4.292525,3.2832 1.693807,0.8353 3.613842,1.25296 5.760105,1.25296 2.552307,0 4.750777,-0.58008 6.589607,-1.73442 1.84462,-1.15434 3.21939,-2.65672 4.1301,-4.51295 l -3.54423,-2.37829 c -0.37705,0.85851 -0.8469,1.58359 -1.40957,2.17527 -0.56267,0.59167 -1.17755,1.06153 -1.83303,1.40957 -0.66128,0.34804 -1.33996,0.60327 -2.03605,0.74829 -0.701881,0.14502 -1.386365,0.22043 -2.053447,0.22043 -1.455978,0 -2.737934,-0.30744 -3.851671,-0.91071 -1.113736,-0.60328 -2.04765,-1.39798 -2.801742,-2.3957 -0.754092,-0.99192 -1.316761,-2.10565 -1.693807,-3.34701 -0.377046,-1.22975 -0.562669,-2.4711 -0.562669,-3.70665 0,-1.39797 0.220427,-2.72633 0.667081,-3.99089 0.440854,-1.25875 1.067331,-2.37829 1.87363,-3.34121 0.806298,-0.96291 1.757615,-1.74021 2.859749,-2.31448 1.102135,-0.58007 2.308683,-0.87011 3.625444,-0.87011 0.672882,0 1.380569,0.087 2.117262,0.26104 0.73669,0.17402 1.43857,0.45825 2.09985,0.8469 0.65548,0.38865 1.26456,0.88171 1.83303,1.47338 0.56267,0.58587 1.03252,1.29936 1.40957,2.13466 l 3.74726,-2.13466 c -0.45826,-1.07893 -1.09634,-2.02445 -1.91424,-2.84235 -0.8179,-0.8237 -1.74021,-1.51398 -2.76113,-2.07665 -1.02093,-0.56267 -2.11146,-0.99192 -3.2658,-1.28776 -1.15434,-0.29584 -2.297084,-0.44665 -3.428222,-0.44665 -1.983843,0 -3.799465,0.42925 -5.435265,1.28775 -1.641601,0.86431 -3.056974,1.98385 -4.25192,3.36441 -1.200747,1.38637 -2.12306,2.95837 -2.78434,4.71598 -0.655481,1.76342 -0.986121,3.55584 -0.986121,5.38306" /><path
         inkscape:connector-curvature="0"
         id="path11768"
         style="fill:#67727d;fill-opacity:1;fill-rule:nonzero;stroke:none"
         d="m 121.99313,849.83558 c 0,-1.34576 0.20883,-2.65092 0.62648,-3.91548 0.41765,-1.25875 1.01512,-2.37249 1.79242,-3.34121 0.77729,-0.96872 1.71701,-1.74021 2.81914,-2.31448 1.10214,-0.58007 2.33769,-0.87011 3.70665,-0.87011 1.39797,0 2.65673,0.30164 3.77047,0.91071 1.11373,0.60328 2.05345,1.39798 2.81914,2.3957 0.76569,0.99192 1.35157,2.10565 1.75761,3.34121 0.40025,1.23555 0.60328,2.5001 0.60328,3.79366 0,1.36897 -0.21463,2.67993 -0.64388,3.92708 -0.43505,1.25295 -1.03833,2.34929 -1.81562,3.3064 -0.7773,0.95132 -1.71701,1.71701 -2.81915,2.29709 -1.10213,0.57427 -2.32608,0.8643 -3.67185,0.8643 -1.39217,0 -2.65092,-0.30164 -3.76466,-0.91071 -1.11953,-0.60327 -2.05345,-1.38637 -2.81914,-2.35509 -0.76569,-0.96872 -1.35157,-2.07665 -1.75762,-3.3238 -0.40025,-1.24716 -0.60327,-2.51751 -0.60327,-3.80527 m 8.90409,-14.50757 c -2.01285,0 -3.84587,0.40605 -5.49907,1.22395 -1.65321,0.8179 -3.08018,1.90843 -4.27513,3.26579 -1.19494,1.35737 -2.11145,2.90616 -2.75533,4.65797 -0.64388,1.74602 -0.96872,3.53264 -0.96872,5.35986 0,1.90263 0.34224,3.72986 1.02672,5.48167 0.68449,1.74601 1.63,3.289 2.84235,4.62897 1.20655,1.33996 2.64512,2.41309 4.30993,3.20199 1.6706,0.7947 3.48042,1.19494 5.44106,1.19494 2.01865,0 3.85167,-0.42925 5.50488,-1.27035 1.6532,-0.8469 3.06857,-1.95484 4.25192,-3.32381 1.17754,-1.36897 2.09405,-2.92356 2.73793,-4.65797 0.64388,-1.73441 0.96872,-3.49783 0.96872,-5.30185 0,-1.90843 -0.34224,-3.72985 -1.02673,-5.47587 -0.68448,-1.75181 -1.6358,-3.2832 -2.84234,-4.61736 -1.21235,-1.32836 -2.63933,-2.38989 -4.29253,-3.18459 -1.6532,-0.7947 -3.45722,-1.18334 -5.42366,-1.18334" /><path
         inkscape:connector-curvature="0"
         id="path11772"
         style="fill:#67727d;fill-opacity:1;fill-rule:nonzero;stroke:none"
         d="m 154.6372,835.52465 0,28.6149 4.51295,0 0,-24.62401 15.36028,0 0,-3.99089 -19.87323,0 z" /><path
         inkscape:connector-curvature="0"
         id="path11776"
         style="fill:#67727d;fill-opacity:1;fill-rule:nonzero;stroke:none"
         d="m 203.48382,839.51438 0,-3.99089 -19.6296,0 0,28.6149 19.26996,0 0,-3.99089 -14.75121,0 0,-8.13839 12.77316,0 0,-3.74726 -12.77316,0 0,-8.74747 15.11085,0 z" /><path
         inkscape:connector-curvature="0"
         id="path11780"
         style="fill:#67727d;fill-opacity:1;fill-rule:nonzero;stroke:none"
         d="m 233.58892,855.67573 0,-20.15166 -4.51295,0 0,28.6149 3.55003,0 16.358,-20.63313 0,20.59252 4.55356,0 0,-28.57429 -3.74726,0 -16.20138,20.15166 z" /><path
         inkscape:connector-curvature="0"
         id="path11784"
         style="fill:#67727d;fill-opacity:1;fill-rule:nonzero;stroke:none"
         d="m 275.86681,859.10163 -4.75658,-12.45412 9.35074,0 -4.59416,12.45412 z m -13.38224,-23.57988 11.52601,28.6149 3.71246,0 11.4854,-28.6149 -4.79719,0 -3.06277,7.77875 -11.04455,0 -2.98156,-7.77875 -4.8378,0 z" /><path
         inkscape:connector-curvature="0"
         id="path11788"
         style="fill:#67727d;fill-opacity:1;fill-rule:nonzero;stroke:none"
         d="m 316.37142,860.14982 -9.51316,0 0,-24.62401 -4.51296,0 0,24.62401 -9.55376,0 0,3.99089 23.57988,0 0,-3.99089 z" /><path
         inkscape:connector-curvature="0"
         d="m 325.71869,864.09662 4.51295,0 0,-28.57429 -4.51295,0 0,28.57429 z"
         style="fill:#67727d;fill-opacity:1;fill-rule:nonzero;stroke:none"
         id="path11790" /><path
         inkscape:connector-curvature="0"
         id="path11794"
         style="fill:#67727d;fill-opacity:1;fill-rule:nonzero;stroke:none"
         d="m 344.98516,849.83558 c 0,-1.34576 0.20883,-2.65092 0.62068,-3.91548 0.41765,-1.25875 1.01512,-2.37249 1.79822,-3.34121 0.77729,-0.96872 1.71701,-1.74021 2.81914,-2.31448 1.10214,-0.58007 2.33189,-0.87011 3.70665,-0.87011 1.39797,0 2.65673,0.30164 3.77047,0.91071 1.11373,0.60328 2.05345,1.39798 2.81914,2.3957 0.76569,0.99192 1.34576,2.10565 1.75761,3.34121 0.40025,1.23555 0.60328,2.5001 0.60328,3.79366 0,1.36897 -0.21463,2.67993 -0.64388,3.92708 -0.42925,1.25295 -1.03253,2.34929 -1.81562,3.3064 -0.7831,0.95132 -1.72281,1.71701 -2.82495,2.29709 -1.10213,0.57427 -2.32028,0.8643 -3.66605,0.8643 -1.39217,0 -2.65092,-0.30164 -3.77046,-0.91071 -1.11373,-0.60327 -2.05345,-1.38637 -2.81914,-2.35509 -0.7657,-0.96872 -1.35157,-2.07665 -1.75182,-3.3238 -0.40605,-1.24716 -0.60327,-2.51751 -0.60327,-3.80527 m 8.90409,-14.50757 c -2.01285,0 -3.84587,0.40605 -5.49907,1.22395 -1.65321,0.8179 -3.07438,1.90843 -4.26933,3.26579 -1.20074,1.35737 -2.11725,2.90616 -2.76693,4.65797 -0.64388,1.74602 -0.96292,3.53264 -0.96292,5.35986 0,1.90263 0.34224,3.72986 1.02672,5.48167 0.68449,1.74601 1.63,3.289 2.84235,4.62897 1.20655,1.33996 2.64512,2.41309 4.30993,3.20199 1.6706,0.7947 3.48042,1.19494 5.44106,1.19494 2.01865,0 3.85167,-0.42925 5.50488,-1.27035 1.6474,-0.8469 3.06857,-1.95484 4.25192,-3.32381 1.17754,-1.36897 2.09405,-2.92356 2.73793,-4.65797 0.64388,-1.73441 0.96872,-3.49783 0.96872,-5.30185 0,-1.90843 -0.34804,-3.72985 -1.03253,-5.47587 -0.68448,-1.75181 -1.63,-3.2832 -2.83654,-4.61736 -1.21235,-1.32836 -2.64513,-2.38989 -4.29253,-3.18459 -1.6532,-0.7947 -3.46302,-1.18334 -5.42366,-1.18334" /><path
         inkscape:connector-curvature="0"
         id="path11798"
         style="fill:#67727d;fill-opacity:1;fill-rule:nonzero;stroke:none"
         d="m 382.14741,855.67573 0,-20.15166 -4.51875,0 0,28.6149 3.55003,0 16.3638,-20.63313 0,20.59252 4.55356,0 0,-28.57429 -3.74726,0 -16.20138,20.15166 z" /><path
         inkscape:connector-curvature="0"
         id="path11802"
         style="fill:#67727d;fill-opacity:1;fill-rule:nonzero;stroke:none"
         d="m 424.42124,859.10163 -4.75658,-12.45412 9.35654,0 -4.59996,12.45412 z m -13.38224,-23.57988 11.52601,28.6149 3.71246,0 11.4854,-28.6149 -4.79719,0 -3.06277,7.77875 -11.04455,0 -2.97576,-7.77875 -4.8436,0 z" /><path
         inkscape:connector-curvature="0"
         id="path11806"
         style="fill:#67727d;fill-opacity:1;fill-rule:nonzero;stroke:none"
         d="m 446.66812,835.52465 0,28.6149 4.51295,0 0,-24.62401 15.35448,0 0,-3.99089 -19.86743,0 z" /><path
         inkscape:connector-curvature="0"
         id="path11810"
         style="fill:#67727d;fill-opacity:1;fill-rule:nonzero;stroke:none"
         d="m 495.51473,839.51438 0,-3.99089 -19.6296,0 0,28.6149 19.26416,0 0,-3.99089 -14.74541,0 0,-8.13839 12.76736,0 0,-3.74726 -12.76736,0 0,-8.74747 15.11085,0 z" /><path
         inkscape:connector-curvature="0"
         id="path11814"
         style="fill:#67727d;fill-opacity:1;fill-rule:nonzero;stroke:none"
         d="m 77.257481,782.82346 c 0,1.50818 -0.208826,2.88875 -0.626477,4.15331 -0.417651,1.26455 -1.026725,2.34348 -1.833024,3.24259 -0.806298,0.89911 -1.786618,1.6126 -2.940959,2.11726 -1.154342,0.51047 -2.471103,0.7657 -3.950284,0.7657 l -5.64409,0 0,-20.63893 5.64409,0 c 1.502384,0 2.842348,0.26684 4.008291,0.7889 1.171743,0.52786 2.152063,1.25295 2.940959,2.17527 0.794697,0.92811 1.392171,2.02444 1.79822,3.2832 0.400249,1.26455 0.603274,2.63352 0.603274,4.1127 m -19.507786,-14.34515 0,28.6149 10.157042,0 c 2.308683,0 4.33313,-0.37705 6.067542,-1.13114 1.728612,-0.74829 3.178789,-1.77502 4.350533,-3.06278 1.165942,-1.28776 2.04765,-2.80174 2.639322,-4.53035 0.591673,-1.73441 0.887509,-3.57904 0.887509,-5.54548 0,-2.17527 -0.330641,-4.14171 -0.986121,-5.90512 -0.661281,-1.75762 -1.595195,-3.26 -2.801742,-4.51295 -1.206548,-1.24716 -2.674127,-2.21588 -4.391137,-2.90036 -1.722811,-0.68448 -3.642846,-1.02672 -5.765906,-1.02672 l -10.157042,0 z" /><path
         inkscape:connector-curvature="0"
         id="path11818"
         style="fill:#67727d;fill-opacity:1;fill-rule:nonzero;stroke:none"
         d="m 120.82313,772.46572 0,-3.99089 -19.6296,0 0,28.6149 19.26996,0 0,-3.99089 -14.75121,0 0,-8.13839 12.77316,0 0,-3.74726 -12.77316,0 0,-8.74747 15.11085,0 z" /><path
         inkscape:connector-curvature="0"
         id="path11822"
         style="fill:#67727d;fill-opacity:1;fill-rule:nonzero;stroke:none"
         d="m 156.73358,790.35974 c -0.27263,0.29584 -0.66128,0.60907 -1.17174,0.95132 -0.51047,0.33644 -1.10794,0.64968 -1.79242,0.94551 -0.68449,0.29584 -1.44438,0.53367 -2.27388,0.72509 -0.8353,0.18562 -1.72281,0.27843 -2.66253,0.27843 -1.77501,0 -3.11498,-0.34804 -4.03149,-1.04412 -0.91071,-0.69609 -1.36897,-1.68221 -1.36897,-2.94676 0,-0.69609 0.14502,-1.26456 0.44086,-1.71121 0.29583,-0.44086 0.74249,-0.8237 1.33416,-1.14854 0.59167,-0.31904 1.32836,-0.60908 2.21587,-0.86431 0.88751,-0.25523 1.92004,-0.53366 3.10338,-0.8295 1.39797,-0.37125 2.67993,-0.76569 3.84587,-1.16594 1.17174,-0.40605 2.16367,-0.90491 2.98737,-1.50819 0.8179,-0.60907 1.45597,-1.35156 1.91423,-2.23907 0.45246,-0.88751 0.68448,-1.98964 0.68448,-3.3006 0,-1.50819 -0.28423,-2.78435 -0.8469,-3.83427 -0.56847,-1.04413 -1.32256,-1.90264 -2.27968,-2.55812 -0.95131,-0.66128 -2.05925,-1.14274 -3.3238,-1.45017 -1.26456,-0.31324 -2.60452,-0.46406 -4.0315,-0.46406 -2.17526,0 -4.28672,0.33064 -6.32857,0.98612 -2.04185,0.66128 -3.88068,1.6184 -5.52228,2.88295 l 2.09986,3.86908 c 0.34804,-0.34805 0.8469,-0.7425 1.49078,-1.17175 0.64388,-0.42925 1.40377,-0.8237 2.27388,-1.18334 0.87591,-0.36545 1.83883,-0.67869 2.88295,-0.92812 1.04993,-0.25523 2.14046,-0.38284 3.2658,-0.38284 1.72281,0 3.05698,0.31324 4.00829,0.94551 0.95712,0.63228 1.43278,1.54879 1.43278,2.76114 0,0.72509 -0.17402,1.33416 -0.52207,1.80982 -0.35384,0.48726 -0.8643,0.91071 -1.53138,1.27036 -0.67289,0.36544 -1.49659,0.69028 -2.4595,0.96872 -0.96872,0.28423 -2.07086,0.58587 -3.30641,0.91071 -1.42697,0.37124 -2.66832,0.77149 -3.72985,1.18334 -1.06153,0.41765 -1.93744,0.92231 -2.63933,1.51399 -0.69608,0.58587 -1.22975,1.28195 -1.58939,2.07665 -0.36545,0.7889 -0.54527,1.75182 -0.54527,2.88295 0,1.39797 0.26103,2.63933 0.7831,3.72406 0.52786,1.09053 1.25295,2.00124 2.18106,2.74373 0.92812,0.73669 2.01865,1.29356 3.28321,1.67061 1.26455,0.37705 2.62192,0.56847 4.07209,0.56847 1.98385,0 3.79367,-0.31324 5.41787,-0.92812 1.63,-0.62067 3.05697,-1.38636 4.29252,-2.29708 l -2.05345,-3.71245 z" /><path
         inkscape:connector-curvature="0"
         id="path11826"
         style="fill:#67727d;fill-opacity:1;fill-rule:nonzero;stroke:none"
         d="m 220.372,790.35974 c -0.27263,0.29584 -0.66128,0.60907 -1.17174,0.95132 -0.51047,0.33644 -1.10794,0.64968 -1.79242,0.94551 -0.68449,0.29584 -1.44438,0.53367 -2.27388,0.72509 -0.8353,0.18562 -1.72281,0.27843 -2.66253,0.27843 -1.77501,0 -3.11498,-0.34804 -4.03149,-1.04412 -0.91071,-0.69609 -1.36897,-1.68221 -1.36897,-2.94676 0,-0.69609 0.15082,-1.26456 0.44086,-1.71121 0.29583,-0.44086 0.74249,-0.8237 1.33416,-1.14854 0.59167,-0.31904 1.32836,-0.60908 2.21587,-0.86431 0.88751,-0.25523 1.92004,-0.53366 3.10338,-0.8295 1.39797,-0.37125 2.67993,-0.76569 3.85167,-1.16594 1.16594,-0.40605 2.15787,-0.90491 2.98157,-1.50819 0.8179,-0.60907 1.45597,-1.35156 1.91423,-2.23907 0.45246,-0.88751 0.68448,-1.98964 0.68448,-3.3006 0,-1.50819 -0.28423,-2.78435 -0.8469,-3.83427 -0.56847,-1.04413 -1.32256,-1.90264 -2.27968,-2.55812 -0.95131,-0.66128 -2.05925,-1.14274 -3.3238,-1.45017 -1.26456,-0.31324 -2.60452,-0.46406 -4.0315,-0.46406 -2.17526,0 -4.28672,0.33064 -6.32277,0.98612 -2.04765,0.66128 -3.88648,1.6184 -5.52228,2.88295 l 2.09406,3.86908 c 0.34804,-0.34805 0.8469,-0.7425 1.49078,-1.17175 0.64388,-0.42925 1.40377,-0.8237 2.27388,-1.18334 0.87591,-0.36545 1.83883,-0.67869 2.88295,-0.92812 1.04993,-0.25523 2.14046,-0.38284 3.2658,-0.38284 1.72281,0 3.05698,0.31324 4.00829,0.94551 0.95712,0.63228 1.43278,1.54879 1.43278,2.76114 0,0.72509 -0.17402,1.33416 -0.52207,1.80982 -0.34804,0.48726 -0.8643,0.91071 -1.53138,1.27036 -0.67289,0.36544 -1.49659,0.69028 -2.4595,0.96872 -0.96872,0.28423 -2.07086,0.58587 -3.30641,0.91071 -1.42697,0.37124 -2.66832,0.77149 -3.72405,1.18334 -1.06733,0.41765 -1.94324,0.92231 -2.64513,1.51399 -0.69608,0.58587 -1.22975,1.28195 -1.58939,2.07665 -0.36545,0.7889 -0.54527,1.75182 -0.54527,2.88295 0,1.39797 0.26103,2.63933 0.7831,3.72406 0.52786,1.09053 1.25295,2.00124 2.18106,2.74373 0.92812,0.73669 2.01865,1.29356 3.28321,1.67061 1.26455,0.37705 2.62192,0.56847 4.07209,0.56847 1.98385,0 3.79367,-0.31324 5.41787,-0.92812 1.63,-0.62067 3.05697,-1.38636 4.29252,-2.29708 l -2.05345,-3.71245 z" /><path
         inkscape:connector-curvature="0"
         id="path11830"
         style="fill:#67727d;fill-opacity:1;fill-rule:nonzero;stroke:none"
         d="m 240.88505,782.98472 c 0,1.72281 0.30744,3.43402 0.92811,5.13943 0.61488,1.70541 1.50819,3.2426 2.67993,4.59416 1.16594,1.35737 2.59872,2.4537 4.29253,3.2832 1.6938,0.8353 3.61384,1.25296 5.7601,1.25296 2.55231,0 4.75078,-0.58008 6.58961,-1.73442 1.84462,-1.15434 3.21939,-2.65672 4.1301,-4.51295 l -3.54423,-2.37829 c -0.37705,0.85851 -0.84691,1.58359 -1.40957,2.17527 -0.56267,0.59167 -1.17755,1.06153 -1.83303,1.40957 -0.66128,0.35384 -1.33996,0.60327 -2.03605,0.74829 -0.70188,0.14502 -1.38637,0.22043 -2.05345,0.22043 -1.45598,0 -2.73793,-0.30164 -3.85167,-0.90491 -1.11374,-0.60328 -2.04765,-1.40378 -2.80174,-2.4015 -0.75409,-0.99192 -1.31676,-2.10565 -1.69381,-3.34701 -0.37705,-1.22975 -0.56267,-2.4711 -0.56267,-3.70665 0,-1.39217 0.22043,-2.72633 0.66708,-3.98509 0.44086,-1.26455 1.06733,-2.38409 1.87363,-3.34701 0.8063,-0.96291 1.75762,-1.74021 2.85975,-2.32028 1.10214,-0.57427 2.30868,-0.86431 3.62545,-0.86431 0.67288,0 1.38056,0.087 2.11725,0.26104 0.73669,0.17982 1.43858,0.45825 2.09406,0.8469 0.66128,0.39445 1.27036,0.88171 1.83883,1.46758 0.56266,0.59747 1.03252,1.30516 1.40957,2.14046 l 3.74726,-2.14046 c -0.45826,-1.06733 -1.09634,-2.01865 -1.91424,-2.83655 -0.8179,-0.8237 -1.74021,-1.51398 -2.76114,-2.07665 -1.02092,-0.56267 -2.11145,-0.99192 -3.26579,-1.28776 -1.15435,-0.29584 -2.29709,-0.44665 -3.42822,-0.44665 -1.98385,0 -3.79947,0.42925 -5.43527,1.29355 -1.6416,0.85851 -3.06277,1.98385 -4.25772,3.36442 -1.19495,1.38056 -2.11726,2.95256 -2.77854,4.71597 -0.65548,1.75762 -0.98612,3.55004 -0.98612,5.37726" /><path
         inkscape:connector-curvature="0"
         d="m 284.45244,797.05202 4.51295,0 0,-28.57429 -4.51295,0 0,28.57429 z"
         style="fill:#67727d;fill-opacity:1;fill-rule:nonzero;stroke:none"
         id="path11832" /><path
         inkscape:connector-curvature="0"
         id="path11836"
         style="fill:#67727d;fill-opacity:1;fill-rule:nonzero;stroke:none"
         d="m 329.54947,772.46572 0,-3.99089 -19.6296,0 0,28.6149 19.26416,0 0,-3.99089 -14.74541,0 0,-8.13839 12.77316,0 0,-3.74726 -12.77316,0 0,-8.74747 15.11085,0 z" /><path
         inkscape:connector-curvature="0"
         id="path11840"
         style="fill:#67727d;fill-opacity:1;fill-rule:nonzero;stroke:none"
         d="m 353.41127,788.62707 0,-20.15166 -4.51875,0 0,28.6149 3.55003,0 16.3638,-20.63313 0,20.59252 4.55356,0 0,-28.57429 -3.74726,0 -16.20138,20.15166 z" /><path
         inkscape:connector-curvature="0"
         id="path11844"
         style="fill:#67727d;fill-opacity:1;fill-rule:nonzero;stroke:none"
         d="m 392.54518,782.98472 c 0,1.72281 0.30744,3.43402 0.92231,5.13943 0.61488,1.70541 1.51399,3.2426 2.68573,4.59416 1.16014,1.35737 2.59292,2.4537 4.28673,3.2832 1.6938,0.8353 3.61384,1.25296 5.7659,1.25296 2.54651,0 4.74498,-0.58008 6.58961,-1.73442 1.83882,-1.15434 3.21939,-2.65672 4.1301,-4.51295 l -3.55003,-2.37829 c -0.37125,0.85851 -0.84111,1.58359 -1.40957,2.17527 -0.56267,0.59167 -1.17755,1.06153 -1.83303,1.40957 -0.65548,0.35384 -1.33416,0.60327 -2.03605,0.74829 -0.69608,0.14502 -1.38057,0.22043 -2.05345,0.22043 -1.45018,0 -2.73213,-0.30164 -3.85167,-0.90491 -1.10794,-0.60328 -2.04185,-1.40378 -2.79594,-2.4015 -0.75409,-0.99192 -1.32256,-2.10565 -1.69381,-3.34701 -0.37705,-1.22975 -0.56847,-2.4711 -0.56847,-3.70665 0,-1.39217 0.22623,-2.72633 0.66708,-3.98509 0.44086,-1.26455 1.06733,-2.38409 1.87363,-3.34701 0.8121,-0.96291 1.75762,-1.74021 2.85975,-2.32028 1.10794,-0.57427 2.31448,-0.86431 3.63125,-0.86431 0.66708,0 1.37476,0.087 2.11145,0.26104 0.74249,0.17982 1.43858,0.45825 2.09986,0.8469 0.65548,0.39445 1.27036,0.88171 1.83302,1.46758 0.56267,0.59747 1.03253,1.30516 1.40958,2.14046 l 3.74726,-2.14046 c -0.45826,-1.06733 -1.09634,-2.01865 -1.91424,-2.83655 -0.8179,-0.8237 -1.73441,-1.51398 -2.75534,-2.07665 -1.02672,-0.56267 -2.11725,-0.99192 -3.26579,-1.28776 -1.16015,-0.29584 -2.30289,-0.44665 -3.42822,-0.44665 -1.98965,0 -3.80527,0.42925 -5.44107,1.29355 -1.6358,0.85851 -3.05697,1.98385 -4.25192,3.36442 -1.19495,1.38056 -2.12306,2.95256 -2.78434,4.71597 -0.65548,1.75762 -0.98032,3.55004 -0.98032,5.37726" /><path
         inkscape:connector-curvature="0"
         id="path11848"
         style="fill:#67727d;fill-opacity:1;fill-rule:nonzero;stroke:none"
         d="m 455.73985,772.46572 0,-3.99089 -19.6296,0 0,28.6149 19.26416,0 0,-3.99089 -14.74541,0 0,-8.13839 12.76736,0 0,-3.74726 -12.76736,0 0,-8.74747 15.11085,0 z" /><path
         inkscape:connector-curvature="0"
         id="path11852"
         style="fill:#67727d;fill-opacity:1;fill-rule:nonzero;stroke:none"
         d="m 491.64218,790.35974 c -0.26683,0.29584 -0.65548,0.60907 -1.16594,0.95132 -0.51047,0.33644 -1.10794,0.64968 -1.79242,0.94551 -0.68449,0.29584 -1.44438,0.53367 -2.27968,0.72509 -0.8353,0.18562 -1.71701,0.27843 -2.65673,0.27843 -1.77501,0 -3.12078,-0.34804 -4.03149,-1.04412 -0.91651,-0.69609 -1.37477,-1.68221 -1.37477,-2.94676 0,-0.69609 0.15082,-1.26456 0.44666,-1.71121 0.29583,-0.44086 0.73669,-0.8237 1.33416,-1.14854 0.58587,-0.31904 1.32256,-0.60908 2.21007,-0.86431 0.89331,-0.25523 1.92584,-0.53366 3.10918,-0.8295 1.39217,-0.37125 2.67413,-0.76569 3.84587,-1.16594 1.16594,-0.40605 2.16367,-0.90491 2.98157,-1.50819 0.8179,-0.60907 1.45597,-1.35156 1.91423,-2.23907 0.45826,-0.88751 0.68448,-1.98964 0.68448,-3.3006 0,-1.50819 -0.27843,-2.78435 -0.8411,-3.83427 -0.56847,-1.04413 -1.32836,-1.90264 -2.27968,-2.55812 -0.95711,-0.66128 -2.06505,-1.14274 -3.3296,-1.45017 -1.25876,-0.31324 -2.59872,-0.46406 -4.0257,-0.46406 -2.18106,0 -4.28672,0.33064 -6.32857,0.98612 -2.04185,0.66128 -3.88068,1.6184 -5.52228,2.88295 l 2.09986,3.86908 c 0.34224,-0.34805 0.8411,-0.7425 1.49078,-1.17175 0.64388,-0.42925 1.40377,-0.8237 2.27388,-1.18334 0.87011,-0.36545 1.83303,-0.67869 2.87715,-0.92812 1.04993,-0.25523 2.14046,-0.38284 3.2716,-0.38284 1.71701,0 3.05698,0.31324 4.00829,0.94551 0.95132,0.63228 1.42698,1.54879 1.42698,2.76114 0,0.72509 -0.17402,1.33416 -0.52207,1.80982 -0.34804,0.48726 -0.8585,0.91071 -1.53138,1.27036 -0.67289,0.36544 -1.49079,0.69028 -2.4537,0.96872 -0.96872,0.28423 -2.07086,0.58587 -3.31221,0.91071 -1.42117,0.37124 -2.66252,0.77149 -3.72405,1.18334 -1.06153,0.41765 -1.93744,0.92231 -2.63933,1.51399 -0.70188,0.58587 -1.22975,1.28195 -1.58939,2.07665 -0.36545,0.7889 -0.54527,1.75182 -0.54527,2.88295 0,1.39797 0.26103,2.63933 0.7831,3.72406 0.52786,1.09053 1.24715,2.00124 2.17526,2.74373 0.92812,0.73669 2.01865,1.29356 3.28321,1.67061 1.26455,0.37705 2.62192,0.56847 4.07789,0.56847 1.98385,0 3.79367,-0.31324 5.41787,-0.92812 1.6242,-0.62067 3.05117,-1.38636 4.29252,-2.29708 l -2.05925,-3.71245 z" /><path
         inkscape:connector-curvature="0"
         id="path11856"
         style="fill:#67727d;fill-opacity:1;fill-rule:nonzero;stroke:none"
         d="m 77.09274,704.54463 c -2.581316,-2.24487 -5.185834,-3.31801 -8.300815,-3.31801 -1.856227,0 -3.590639,0.40605 -5.220639,1.22975 -1.624198,0.8179 -3.033771,1.90264 -4.228717,3.2658 -1.194946,1.35737 -2.134661,2.91196 -2.819145,4.67538 -0.690284,1.75761 -1.026725,3.57903 -1.026725,5.45846 0,1.93164 0.336441,3.77046 1.026725,5.52228 0.684484,1.75181 1.624199,3.2832 2.819145,4.59416 1.194946,1.31676 2.610319,2.35509 4.25192,3.12078 1.6358,0.7715 3.428219,1.15434 5.359856,1.15434 2.685728,0 4.942204,-0.57427 6.769428,-1.71701 1.827223,-1.13694 3.213593,-2.65092 4.153308,-4.53035 l -3.468825,-2.50591 c -0.777295,1.56619 -1.833024,2.73214 -3.161386,3.50943 -1.328363,0.7773 -2.801743,1.17175 -4.41434,1.17175 -1.316761,0 -2.511707,-0.29004 -3.584839,-0.87011 -1.078932,-0.57427 -1.995444,-1.33996 -2.761137,-2.29708 -0.765694,-0.95132 -1.357366,-2.05925 -1.775017,-3.32381 -0.417651,-1.25875 -0.620676,-2.57551 -0.620676,-3.94448 0,-1.45598 0.226227,-2.81334 0.684483,-4.0721 0.452456,-1.26455 1.090534,-2.36669 1.914235,-3.3064 0.8179,-0.94552 1.780817,-1.68801 2.877151,-2.23908 1.102135,-0.55106 2.302882,-0.8295 3.59064,-0.8295 2.900354,0 5.504873,1.41537 7.819356,4.24032 l 0,3.02217 -6.009535,0 0,3.34121 9.797398,0 0,-7.16968 c 0,0 -1.513985,-2.30868 -3.671849,-4.18231" /><path
         inkscape:connector-curvature="0"
         id="path11860"
         style="fill:#67727d;fill-opacity:1;fill-rule:nonzero;stroke:none"
         d="m 105.5487,733.02727 -2.90035,0.88751 2.29708,4.43174 4.22871,0 -3.62544,-5.31925 z m 8.54444,-27.60558 0,-3.99088 -19.629596,0 0,28.60909 19.269956,0 0,-3.99088 -14.757004,0 0,-8.1326 12.778964,0 0,-3.75306 -12.778964,0 0,-8.74167 15.116644,0 z" /><path
         inkscape:connector-curvature="0"
         id="path11864"
         style="fill:#67727d;fill-opacity:1;fill-rule:nonzero;stroke:none"
         d="m 130.2545,715.73768 c 0,-1.34576 0.20883,-2.65092 0.62648,-3.90968 0.41765,-1.26455 1.01512,-2.37829 1.79242,-3.34701 0.77729,-0.96292 1.71701,-1.74021 2.81914,-2.31448 1.10214,-0.58007 2.33769,-0.87011 3.70665,-0.87011 1.39797,0 2.65673,0.30164 3.77047,0.91071 1.11373,0.60328 2.05345,1.39798 2.81914,2.3957 0.76569,0.99192 1.35157,2.10565 1.75181,3.34701 0.40605,1.23555 0.60908,2.4943 0.60908,3.78786 0,1.36897 -0.21463,2.67993 -0.64388,3.92708 -0.43505,1.25295 -1.03833,2.35509 -1.81562,3.3064 -0.7773,0.95132 -1.71701,1.71701 -2.81915,2.29709 -1.10213,0.58007 -2.32608,0.8701 -3.67185,0.8701 -1.39217,0 -2.65092,-0.30744 -3.76466,-0.91071 -1.11953,-0.60327 -2.05345,-1.38637 -2.81914,-2.36089 -0.76569,-0.96292 -1.35157,-2.07085 -1.75762,-3.3238 -0.40025,-1.24716 -0.60327,-2.51751 -0.60327,-3.80527 m 8.90409,-14.50757 c -2.01285,0 -3.84587,0.40605 -5.49907,1.22395 -1.65321,0.8237 -3.08018,1.90843 -4.27513,3.2716 -1.19494,1.35736 -2.11145,2.90615 -2.75533,4.65216 -0.64388,1.74602 -0.96872,3.53264 -0.96872,5.35986 0,1.90263 0.34224,3.72986 1.02672,5.48167 0.68449,1.74601 1.63,3.289 2.84235,4.63477 1.20655,1.33996 2.64512,2.41309 4.30993,3.20199 1.6706,0.7889 3.48042,1.18914 5.44106,1.18914 2.01865,0 3.85167,-0.42345 5.50488,-1.27035 1.6532,-0.8469 3.06857,-1.95484 4.25192,-3.32381 1.17754,-1.36897 2.09405,-2.92356 2.73793,-4.65797 0.64388,-1.72861 0.96872,-3.49783 0.96872,-5.30185 0,-1.90263 -0.34224,-3.72985 -1.02673,-5.47587 -0.68448,-1.74601 -1.6358,-3.2832 -2.84234,-4.61736 -1.21235,-1.32836 -2.63933,-2.38989 -4.29253,-3.18459 -1.6532,-0.7947 -3.45722,-1.18334 -5.42366,-1.18334" /><path
         inkscape:connector-curvature="0"
         id="path11868"
         style="fill:#67727d;fill-opacity:1;fill-rule:nonzero;stroke:none"
         d="m 185.78701,704.54463 c -2.58132,-2.24487 -5.18003,-3.31801 -8.30082,-3.31801 -1.85622,0 -3.59063,0.40605 -5.22063,1.22975 -1.6242,0.8179 -3.03377,1.90264 -4.22872,3.2658 -1.19495,1.35737 -2.13466,2.91196 -2.81915,4.67538 -0.69028,1.75761 -1.03252,3.57903 -1.03252,5.45846 0,1.93164 0.34224,3.77046 1.03252,5.52228 0.68449,1.75181 1.6242,3.2832 2.81915,4.59416 1.19495,1.31676 2.61032,2.35509 4.25192,3.12078 1.6416,0.7715 3.42822,1.15434 5.35985,1.15434 2.68573,0 4.94221,-0.57427 6.76943,-1.71701 1.82723,-1.13694 3.2136,-2.65092 4.15331,-4.53035 l -3.46882,-2.50591 c -0.7773,1.56619 -1.83303,2.73214 -3.16139,3.50943 -1.32836,0.7773 -2.80174,1.17175 -4.41434,1.17175 -1.31676,0 -2.51171,-0.29004 -3.58484,-0.87011 -1.07893,-0.57427 -1.99544,-1.33996 -2.76114,-2.29708 -0.76569,-0.95132 -1.35736,-2.05925 -1.77501,-3.32381 -0.41765,-1.25875 -0.62068,-2.57551 -0.62068,-3.94448 0,-1.45598 0.22623,-2.81334 0.68448,-4.0721 0.45246,-1.26455 1.09054,-2.36669 1.91424,-3.3064 0.8179,-0.94552 1.78082,-1.68801 2.87715,-2.23908 1.10214,-0.55106 2.30288,-0.8295 3.59064,-0.8295 2.90035,0 5.50487,1.41537 7.81936,4.24032 l 0,3.02217 -6.00954,0 0,3.34121 9.7974,0 0,-7.16968 c 0,0 -1.51399,-2.30868 -3.67185,-4.18231" /><path
         inkscape:connector-curvature="0"
         id="path11872"
         style="fill:#67727d;fill-opacity:1;fill-rule:nonzero;stroke:none"
         d="m 207.67367,715.37165 7.90057,0 c 0.64387,0 1.22975,0.14502 1.75181,0.42925 0.52786,0.27844 0.97452,0.66708 1.35157,1.16595 0.37704,0.49886 0.67288,1.06733 0.8875,1.7112 0.21463,0.64388 0.31904,1.33417 0.31904,2.05346 0,0.72508 -0.12761,1.41537 -0.38284,2.05925 -0.25523,0.64388 -0.59168,1.20654 -1.00353,1.6938 -0.41765,0.48146 -0.90491,0.86431 -1.45597,1.14854 -0.55107,0.27844 -1.11954,0.41766 -1.71121,0.41766 l -7.65694,0 0,-10.67911 z m -4.51295,-13.9391 0,28.60909 12.45412,0 c 1.28776,0 2.4769,-0.26683 3.56744,-0.80049 1.08473,-0.53947 2.01864,-1.24136 2.80174,-2.11726 0.7773,-0.87591 1.38637,-1.86783 1.83302,-2.98737 0.44086,-1.11373 0.66709,-2.24487 0.66709,-3.40501 0,-0.96292 -0.13922,-1.89104 -0.40605,-2.77854 -0.26684,-0.88751 -0.64388,-1.70541 -1.13114,-2.45951 -0.48146,-0.75409 -1.07313,-1.39797 -1.76922,-1.95483 -0.70188,-0.55107 -1.46758,-0.95712 -2.29708,-1.22975 l 6.81003,-10.87633 -5.12202,0 -6.28217,9.94821 -6.61281,0 0,-9.94821 -4.51295,0 z" /><path
         inkscape:connector-curvature="0"
         id="path11876"
         style="fill:#67727d;fill-opacity:1;fill-rule:nonzero;stroke:none"
         d="m 248.82274,725.00373 -4.75658,-12.44832 9.35074,0 -4.59416,12.44832 z m -13.38224,-23.57408 11.52601,28.6149 3.70666,0 11.4912,-28.6149 -4.79719,0 -3.06277,7.77875 -11.04455,0 -2.98156,-7.77875 -4.8378,0 z" /><path
         inkscape:connector-curvature="0"
         id="path11880"
         style="fill:#67727d;fill-opacity:1;fill-rule:nonzero;stroke:none"
         d="m 278.6059,715.37165 7.45391,0 c 0.64388,0 1.23555,0.13342 1.75762,0.40605 0.52206,0.26683 0.96871,0.64388 1.34576,1.12534 0.37705,0.48726 0.67288,1.04993 0.88751,1.6938 0.21463,0.64968 0.32484,1.35737 0.32484,2.13467 0,0.81209 -0.12182,1.53138 -0.36545,2.18106 -0.24363,0.64388 -0.58007,1.20075 -1.00932,1.67061 -0.42925,0.46985 -0.91651,0.8353 -1.46758,1.09053 -0.55107,0.25523 -1.11954,0.37705 -1.71701,0.37705 l -7.21028,0 0,-10.67911 z m -4.51295,-13.9391 0,28.60909 12.00747,0 c 1.29355,0 2.4827,-0.26683 3.56743,-0.80049 1.09054,-0.53947 2.02445,-1.24136 2.80175,-2.11726 0.78309,-0.87591 1.39217,-1.86783 1.83882,-2.98737 0.43505,-1.11373 0.66128,-2.24487 0.66128,-3.40501 0,-1.20655 -0.20882,-2.36669 -0.62648,-3.48623 -0.41765,-1.11374 -0.99772,-2.10566 -1.75181,-2.97576 -0.75409,-0.88171 -1.659,-1.5778 -2.72053,-2.09986 -1.06153,-0.52207 -2.23908,-0.7889 -3.52683,-0.7889 l -7.73815,0 0,-9.94821 -4.51295,0 z" /><path
         inkscape:connector-curvature="0"
         id="path11884"
         style="fill:#67727d;fill-opacity:1;fill-rule:nonzero;stroke:none"
         d="m 331.08086,730.04165 0,-28.6091 -4.55356,0 0,12.61074 -14.42636,0 0,-12.61074 -4.51875,0 0,28.6091 4.51875,0 0,-11.96686 14.42636,0 0,11.96686 4.55356,0 z" /><path
         inkscape:connector-curvature="0"
         d="m 345.99217,730.00162 4.51295,0 0,-28.56849 -4.51295,0 0,28.56849 z"
         style="fill:#67727d;fill-opacity:1;fill-rule:nonzero;stroke:none"
         id="path11886" /><path
         inkscape:connector-curvature="0"
         id="path11890"
         style="fill:#67727d;fill-opacity:1;fill-rule:nonzero;stroke:none"
         d="m 377.22319,705.29582 c 0.88751,0 1.72281,0.12181 2.50011,0.36544 0.77729,0.23783 1.49078,0.59168 2.14046,1.04993 l -4.0373,4.66957 4.35634,0 1.97224,-2.29128 c 0.67288,0.93392 1.17754,1.97805 1.51398,3.12079 0.33064,1.14274 0.49886,2.32028 0.49886,3.52683 0,1.36896 -0.20882,2.67992 -0.64387,3.92708 -0.42926,1.25295 -1.03253,2.36089 -1.80983,3.3238 -0.78309,0.97452 -1.72281,1.74022 -2.82494,2.32029 -1.10214,0.57427 -2.32029,0.8701 -3.66605,0.8701 -1.39797,0 -2.65092,-0.30163 -3.76466,-0.91071 -1.11374,-0.60327 -2.05925,-1.39797 -2.82495,-2.37829 -0.76569,-0.98032 -1.35156,-2.09405 -1.75181,-3.34701 -0.40605,-1.24715 -0.60327,-2.51751 -0.60327,-3.80526 0,-1.34577 0.20882,-2.65093 0.62067,-3.90968 0.42345,-1.26456 1.02093,-2.37829 1.79822,-3.34701 0.7773,-0.96292 1.71701,-1.73441 2.81915,-2.31448 1.10213,-0.58007 2.33768,-0.87011 3.70665,-0.87011 m 7.3785,-1.72861 c -1.04993,-0.73089 -2.19847,-1.29936 -3.44562,-1.71701 -1.25295,-0.41185 -2.57551,-0.62068 -3.97348,-0.62068 -2.01285,0 -3.85168,0.41185 -5.49908,1.24716 -1.6532,0.8353 -3.08017,1.92003 -4.26932,3.25999 -1.20075,1.35157 -2.12306,2.89456 -2.76694,4.64057 -0.64388,1.74601 -0.96292,3.53263 -0.96292,5.35986 0,1.90843 0.34225,3.72985 1.02673,5.48167 0.67868,1.74601 1.63,3.289 2.84235,4.63476 1.20654,1.33997 2.64512,2.4131 4.30992,3.202 1.66481,0.79469 3.48043,1.18914 5.44107,1.18914 2.01285,0 3.85167,-0.42345 5.50487,-1.27035 1.6474,-0.84691 3.06278,-1.94904 4.24612,-3.32381 1.18335,-1.36897 2.09986,-2.92356 2.74374,-4.65217 0.64388,-1.73441 0.96292,-3.50363 0.96292,-5.30185 0,-1.87943 -0.32484,-3.67765 -0.98032,-5.38306 -0.66129,-1.6996 -1.5662,-3.21359 -2.72634,-4.53035 l 3.79367,-4.35053 -4.35634,0 -1.89103,2.13466 z" /><path
         inkscape:connector-curvature="0"
         id="path11894"
         style="fill:#67727d;fill-opacity:1;fill-rule:nonzero;stroke:none"
         d="m 415.87679,705.29582 c 1.50238,0 2.75534,0.29584 3.74726,0.89331 0.99192,0.58587 1.79242,1.35737 2.39569,2.31448 0.60328,0.95132 1.03833,2.03605 1.29356,3.26 0.24943,1.22395 0.37705,2.4827 0.37705,3.77046 l 0,14.50758 4.55935,0 0,-14.50758 c 0,-1.96064 -0.23203,-3.80526 -0.68448,-5.53968 -0.45826,-1.73441 -1.18335,-3.24839 -2.18107,-4.55355 -0.99192,-1.30516 -2.27388,-2.33189 -3.84007,-3.08598 -1.57779,-0.74829 -3.46302,-1.12534 -5.66729,-1.12534 -2.27968,0 -4.21132,0.39445 -5.78331,1.18915 -1.57199,0.78889 -2.84234,1.85042 -3.81106,3.17879 -0.96292,1.33416 -1.67061,2.85975 -2.09986,4.57676 -0.42345,1.72281 -0.64388,3.50363 -0.64388,5.35985 l 0,14.50758 4.51875,0 0,-14.50758 c 0,-1.31676 0.12762,-2.58711 0.38285,-3.80526 0.25523,-1.22395 0.68448,-2.31449 1.28776,-3.2658 0.60327,-0.95132 1.40957,-1.71701 2.41889,-2.29708 1.00933,-0.58007 2.25068,-0.87011 3.72986,-0.87011" /><path
         inkscape:connector-curvature="0"
         id="path11898"
         style="fill:#67727d;fill-opacity:1;fill-rule:nonzero;stroke:none"
         d="m 462.30915,705.42054 0,-3.99089 -19.6296,0 0,28.6149 19.26416,0 0,-3.99089 -14.74541,0 0,-8.13839 12.76736,0 0,-3.75306 -12.76736,0 0,-8.74167 15.11085,0 z" /><path
         inkscape:connector-curvature="0"
         id="path11902"
         style="fill:#67727d;fill-opacity:1;fill-rule:nonzero;stroke:none"
         d="m 492.17004,723.31108 c -0.26683,0.29584 -0.66128,0.60907 -1.16594,0.95132 -0.51047,0.33644 -1.10794,0.64968 -1.79822,0.94551 -0.67869,0.29584 -1.43858,0.53367 -2.27388,0.72509 -0.8353,0.18562 -1.71701,0.27843 -2.65673,0.27843 -1.77501,0 -3.12078,-0.34224 -4.03729,-1.04412 -0.91071,-0.69609 -1.36897,-1.68221 -1.36897,-2.94676 0,-0.69609 0.14502,-1.26456 0.44666,-1.70541 0.29583,-0.44086 0.73669,-0.8295 1.32836,-1.15434 0.59167,-0.31904 1.32836,-0.60908 2.21587,-0.86431 0.88751,-0.25523 1.92004,-0.53366 3.10918,-0.8295 1.39217,-0.37125 2.67413,-0.76569 3.84007,-1.16594 1.17174,-0.40025 2.16367,-0.90491 2.98737,-1.50819 0.8179,-0.60907 1.45597,-1.35156 1.91423,-2.23907 0.45246,-0.88751 0.68448,-1.98964 0.68448,-3.3006 0,-1.50819 -0.27843,-2.79015 -0.8469,-3.83427 -0.56267,-1.04413 -1.32256,-1.89684 -2.27968,-2.55812 -0.95131,-0.66128 -2.05925,-1.14274 -3.3238,-1.45017 -1.26456,-0.30744 -2.60452,-0.46406 -4.0315,-0.46406 -2.17526,0 -4.28092,0.33064 -6.32277,0.98612 -2.04185,0.66128 -3.88648,1.6184 -5.52228,2.88295 l 2.09406,3.86908 c 0.34804,-0.34805 0.8469,-0.73669 1.49658,-1.17175 0.63808,-0.42925 1.39797,-0.8237 2.27388,-1.18334 0.87011,-0.35965 1.83303,-0.67288 2.87715,-0.92812 1.04993,-0.25523 2.14046,-0.38284 3.2658,-0.38284 1.71701,0 3.05698,0.31324 4.01409,0.95131 0.95132,0.62648 1.42698,1.54299 1.42698,2.75534 0,0.72509 -0.17402,1.33416 -0.52207,1.81562 -0.35384,0.48146 -0.8585,0.90491 -1.53138,1.26456 -0.67289,0.36544 -1.49079,0.69028 -2.4595,0.96872 -0.96292,0.28423 -2.06506,0.58587 -3.30641,0.91071 -1.42117,0.37704 -2.66832,0.76569 -3.72985,1.18334 -1.05573,0.41765 -1.93744,0.92231 -2.63353,1.51399 -0.70188,0.59167 -1.22975,1.28195 -1.59519,2.07665 -0.36545,0.7947 -0.53947,1.75182 -0.53947,2.88295 0,1.39797 0.26103,2.63933 0.7831,3.72406 0.52206,1.09053 1.24715,2.00124 2.17526,2.74373 0.92232,0.73669 2.01865,1.29356 3.28321,1.67061 1.25875,0.37705 2.62192,0.56847 4.07209,0.56847 1.98965,0 3.79367,-0.31324 5.42367,-0.92812 1.6242,-0.62067 3.05117,-1.38636 4.28672,-2.29708 l -2.05345,-3.71245 z" /></g></g></svg>